<svg xmlns="http://www.w3.org/2000/svg" width="16.41" height="16.41" viewBox="0 0 16.41 16.41">
  <path id="Trazado_201" data-name="Trazado 201" d="M-.5-2.025H1.952a4.464,4.464,0,0,0-.33,1.684A4.493,4.493,0,0,0,6.11,4.147,4.493,4.493,0,0,0,10.6-.341a4.422,4.422,0,0,0-.333-1.684h2.45V4.693a1.573,1.573,0,0,1-1.573,1.572H1.075A1.572,1.572,0,0,1-.5,4.693Zm4.265,0a2.885,2.885,0,0,1,2.343-1.2,2.887,2.887,0,0,1,2.343,1.2A2.88,2.88,0,0,1,9-.341,2.891,2.891,0,0,1,6.11,2.546,2.89,2.89,0,0,1,3.221-.342a2.891,2.891,0,0,1,.547-1.684m8.285-4.629h.363v2.781l-2.773.009-.01-2.781ZM1.077,7.865H11.144a3.174,3.174,0,0,0,3.171-3.173V-5.375a3.173,3.173,0,0,0-3.171-3.17H1.077A3.173,3.173,0,0,0-2.1-5.375V4.693A3.175,3.175,0,0,0,1.077,7.865" transform="translate(2.095 8.545)" fill="#507895"/>
</svg>
